Nome do usuário:
João Beroni
Idade do usuário:
23
Sexo do usuário:
masculino
Pratica exercicios?
sim
Frequencia: 2

Valores do geste:Aberta
var Aberta1 =[0,0,0,0,0,0,0,0,0,0,0,0,0,0,0,0,0,0,0,0,0,0,0,0,0,0,0,0,0,0,0,0,0,0,0,0,0,0,0,0,0,0,0,0,0,0,0,0,0,0,0,0,0,0,0,0,0,0,0,0,0,0,0,0,0,0,0,0,0,0,0,0,0,0,0,0,0,0,0,0,0,0,0,0,0,0,0,0,0,0,0,0,0,0,0,0,0,0,0,0,0,0,0,0,0,0,0,0,0,0,0,0,0,0,0,0,0,0,0,0,0,0,0,0,0,0,0,0,0,0,0,0,0,0,0,0,0,0,0,0,0,0,0,0,0,0,0,0,0,0,0,0,0,0,0,0,0,0,0,0,0,0,0,0,0,0,0,0,0,0,0,0,0,0,0,0,0,0,0,0,0,0,0,0,0,0,0,0,0,0,0,0,0,0,0,0,0,0,0,0,0,0,0,0,0,0,0,0,0,0,0,0,0,0,0,0,0,0,0,0,0,0,0,0,0,0,0,0,0,0,0,0,0,0,0,0,0,0,0,0,0,0,0,0,0,0,0,0,0,0,0,0,0,0,0,0,0,0,0,0,0,0,0,0,0,0,0,0,0,0,0,0,0,0,0,0,0,0,0,0,0,0,0,0,0,0,0,0,0,0,0,0,0,0,0,0,0,0,0,0,0,0,0,0,0,0,0,0,0,0,0,0,0,0,0,0,0,0,0,0,0,0,0,0,0,0,0,0,0,0,0,0,0,0,0,0,0,0,0,0,0,0,0,0,0,0,0,0,0,0,0,0,0,0,0,0,0,0,0,0,0,0,0,0,0,0,0,0,0,0,0,0,0,0,0,0,0,0,0,0,0,0,0,0,0,0,0,0,0,0,0,0,0,0,0,0,0,0,0,0,0,0,0,0,0,0,0,0,0,0,0,0,0,0,0,0,0,0,0,0,0,0,0,0,0,0,0,0,0,0,0,0,0,0,0,0,0,0,0,0,0,0,0,0,0,0,0,0,0,0,0,0,0,0,0,0,0,0,0,0,0,0,0,0,0,0,0,0,0,0,0,0,0,0,0,0,0,0,0,0,0,0,0,0,0,0,0,0,0,0,0,0,0,0,0,0,0,0,0,0,0,0,0,0,0,0,0,0,0,0,0,0,0,0,0,0,0,0,0,0,0,0,0,0,0,0,0,0,0,0,0,0,0,0,0,0,0,0,0,0,0,0,0,0,0,0,0,0,0,0,0,0,0,0,0,0,0,0,0,0,0,0,0,0,0,0,0,0,0,0,0,0,0,0,0,0,0,0,0,0,0,0,0,0,0,0,0,0,0,0,0,0,0,0,0,0,0,0,0,0,0,0,0,0,0,0,0,0,0,0,0,0,0,0,0,0,0,0,0,0,0,0,0,0,0,0,0,0,0,0,0,0,0,0,0,0,0,0,0,0,0,0,0,0,0,0,0,0,0,0,0,0,0,0,0,0,0,0,0,0,0,0,0,0,0,0,0,0,0,0,0,0,0,0,0,0,0,0,0,0,0,0,0,0,0,0,0,0,0,0,0,0,0,0,0,0,0,0,0,0,0,0,0,0,0,0,0,0,0,0,0,0,0,0,0,0,0,0,0,0,0,0,0,0,0,0,0,0,0,0,0,0,0,0,0,0,0,0,0,0,0,0,0,0,0,0,0,0,0,0,0,0,0,0,0,0,0,0,0,0,0,0,0,0,0,0,0,0,0,0,0,0,0,0,0,0,0,0,0,0,0,0,0,0,0,0,0,0,0,0,0,0,0,0,0,0,0,0,0,0] 
var Aberta2 =[0,0,0,0,0,0,0,0,0,0,0,0,0,0,0,0,0,0,0,0,0,0,0,0,0,0,0,0,0,0,0,0,0,0,0,0,0,0,0,0,0,0,0,0,0,0,0,0,0,0,0,0,0,0,0,0,0,0,0,0,0,0,0,0,0,0,0,0,0,0,0,0,0,0,0,0,0,0,0,0,0,0,0,0,0,0,0,0,0,0,0,0,0,0,0,0,0,0,0,0,0,0,0,0,0,0,0,0,0,0,0,0,0,0,0,0,0,0,0,0,0,0,0,0,0,0,0,0,0,0,0,0,0,0,0,0,0,0,0,0,0,0,0,0,0,0,0,0,0,0,0,0,0,0,0,0,0,0,0,0,0,0,0,0,0,0,0,0,0,0,0,0,0,0,0,0,0,0,0,0,0,0,0,0,0,0,0,0,0,0,0,0,0,0,0,0,0,0,0,0,0,0,0,0,0,0,0,0,0,0,0,0,0,0,0,0,0,0,0,0,0,0,0,0,2,14,11,16,16,16,16,16,16,16,16,18,18,16,16,16,16,16,15,12,14,13,12,11,12,10,6,7,6,4,1,2,2,0,0,0,1,0,0,0,0,0,0,0,0,0,0,0,0,0,0,0,0,0,0,0,0,0,0,0,0,0,0,0,0,0,0,0,0,0,0,0,0,0,0,0,0,0,0,0,0,0,0,0,0,0,0,0,0,0,0,0,0,0,0,0,0,0,0,0,0,0,0,0,0,0,0,0,0,0,0,0,0,0,0,0,0,0,0,0,0,0,0,0,0,0,0,0,0,0,0,0,0,0,0,0,0,0,0,0,0,0,0,0,0,0,0,0,0,0,0,0,0,0,0,0,0,0,0,0,0,0,0,0,0,0,0,0,0,0,0,0,0,0,0,0,0,0,0,0,0,0,0,0,0,0,0,0,0,0,0,0,0,0,0,0,0,0,0,0,0,0,0,0,0,0,0,0,0,0,0,0,0,0,0,0,0,0,0,0,0,0,0,0,0,0,0,0,0,0,0,0,0,0,0,0,0,0,0,0,0,0,0,0,0,0,0,0,0,0,0,0,0,0,0,0,0,0,0,0,0,0,0,0,0,0,0,0,0,0,0,0,0,0,0,0,0,0,0,0,0,0,0,0,0,0,0,0,0,0,0,0,0,0,0,0,0,0,0,0,0,0,0,0,0,0,0,0,0,0,0,0,0,0,0,0,0,0,0,0,0,0,0,0,5,0,0,0,0,0,0,0,0,0,0,0,0,0,0,0,0,0,0,0,0,0,0,0,0,0,0,0,0,0,0,0,0,0,0,0,0,0,0,0,0,0,0,0,0,0,0,0,0,0,0,0,0,0,0,0,0,0,0,0,0,0,0,0,0,0,0,0,0,0,0,0,0,0,0,0,0,0,0,0,0,0,0,0,0,0,0,0,0,0,0,0,0,0,0,0,0,0,0,0,0,0,0,0,0,0,0,0,0,0,0,0,0,0,0,0,0,0,0,0,0,0,0,0,0,0,0,0,0,0,0,0,0,0,0,0,0,0,0,0,0,0,0,0,0,0,0,0,0,0,0,0,0,0,0,0,0,0,0,0,0,0,0,0,0,0,0,0,0,0,0,0,0,0,0,0,0,0,0,0,0,0,0,0,0,0,0,0,0,0,0,0,0,0,0,0,0,0,0,0,0,0,0,0,0,0,0,0,0,0,0,0,0,0,0,0,0,0,0,0,0,0,0,0,0,0,0,0,0,0,0,0,0,0,0,0,0,0,0,0,0,0,0,0,0,0,0,0,0,0,0,0] 
Valores do geste:Fechada
var Fechada1 =[83,84,86,86,85,93,97,97,108,113,112,111,110,111,106,106,107,112,112,112,108,106,102,99,98,97,96,93,93,89,86,85,80,83,83,85,82,80,80,80,80,80,78,77,79,78,79,80,83,85,89,92,87,86,86,82,85,87,85,90,85,91,95,95,96,96,97,98,105,107,104,106,105,111,111,112,112,115,116,114,112,112,118,122,123,125,123,128,132,138,137,135,131,130,128,125,123,125,126,123,122,128,121,123,118,115,112,113,112,106,109,109,107,106,106,112,113,113,112,111,110,110,109,102,101,99,94,96,96,98,107,112,114,117,87,112,112,113,113,112,109,106,105,103,102,101,94,93,93,93,91,91,85,85,81,82,80,80,80,70,77,76,73,77,75,71,75,70,75,76,77,78,78,75,71,74,77,80,85,90,90,84,81,82,79,79,78,76,74,74,68,67,67,68,64,64,64,64,68,71,77,79,80,83,81,79,78,79,77,78,77,76,71,71,70,68,65,65,64,64,64,64,64,61,57,54,53,57,54,53,58,58,58,54,55,54,50,51,50,48,48,46,44,47,46,43,46,44,41,42,41,41,42,39,42,42,43,42,45,48,47,48,48,48,48,48,48,48,48,48,48,48,53,62,64,64,67,67,71,70,66,66,64,64,67,69,68,68,66,64,61,64,60,59,61,63,64,64,66,64,70,64,64,65,64,63,61,60,61,59,59,64,70,77,81,87,86,81,86,85,87,82,80,80,78,80,78,77,79,80,81,83,83,83,83,83,84,82,80,82,79,81,87,100,102,96,101,112,112,112,112,112,108,106,104,102,99,98,96,95,93,87,85,85,83,83,80,87,87,91,94,98,97,97,96,97,97,98,100,101,96,96,95,94,97,94,94,92,90,87,87,81,80,80,78,77,75,79,81,85,86,86,82,81,81,83,81,80,80,78,79,77,79,79,80,83,80,80,80,79,79,80,81,83,82,87,87,87,83,91,91,88,90,89,86,84,85,85,82,81,80,80,80,82,91,96,102,103,107,114,119,121,126,132,135,133,132,132,130,129,126,127,125,122,117,116,114,118,126,125,123,121,122,122,121,120,117,116,113,113,112,110,109,106,102,102,99,99,97,96,97,94,90,91,87,85,83,81,81,81,80,80,78,77,77,74,75,72,68,69,67,68,66,71,75,79,74,73,70,69,67,67,71,69,69,70,70,76,81,90,98,107,112,110,110,107,108,111,105,102,103,99,97,96,93,90,90,91,90,85,86,84,82,81,83,81,80,81,80,80,80,80,80,83,86,92,101,112,112,107,111,112,111,112,110,107,102,99,98,101,99,100,94,91,93,92,95,98,99,101,104,91,105,104,101,100,96,95,95,89,89,87,85,83,80,79,80,79,78,74,75,71,69,65,64,64,63,64,59,53,55,54,55,51,51,53,51,51,48,47,48,49,50,51,48,49,48,48,46,48,48,50,54,59,64,73,73,68,69,67,64,66,71,77,80,73,76,76,76,71,77,74,71,67,67,65,64,64,64,63,62,58,59,53,54,54,52,54,58,60,57,54,55,51,50,50,48,47,46,46,47,48,46,44,47,47,45,42,42,39,38,37,36,34,36,33,35,34,42,48,49,52,55,55,54,54,50,51,54,63,61,64,69,79,76,73,75,74,68,65,68,66,66,66,66,66,63,63,61,59,59,56,53,53,58,63,69,78,77,77,77,74,71,69,68,69,65,64,64,64,64,59,62,62,57,57,55,51,51,53,48,48,49,46,46,42,43,47,45,48,54,61,65,72,77,75,71,73,71,73,68,71,67,71,69,66,65,66,65,70] 
var Fechada2 =[19,21,17,17,17,17,16,16,16,16,14,12,12,14,12,11,7,6,9,7,9,6,9,5,1,2,2,2,1,1,2,0,0,2,1,3,2,0,0,0,0,0,0,0,0,0,0,0,0,0,0,0,0,0,0,0,5,11,13,11,11,10,7,7,5,3,7,11,16,19,16,16,20,27,31,32,33,34,35,35,34,34,39,39,36,37,35,34,32,33,34,31,31,27,29,29,25,27,23,19,19,19,16,19,17,16,17,16,16,16,16,15,10,15,12,10,13,11,11,10,13,13,15,15,10,12,10,11,10,10,10,6,11,13,11,12,9,9,5,7,5,3,3,4,3,2,2,0,0,0,1,1,0,4,7,8,4,7,4,0,0,4,4,5,0,1,0,0,0,0,0,0,0,0,0,0,0,0,0,0,0,0,0,0,0,0,0,0,0,0,0,0,0,0,0,0,0,0,0,0,0,0,0,0,0,0,0,0,0,0,0,0,0,0,0,0,0,0,0,0,0,0,0,0,0,0,0,0,0,0,0,0,0,0,0,0,0,0,0,0,0,0,0,0,0,0,0,0,0,0,0,0,0,0,0,0,0,0,0,0,0,0,0,0,0,0,0,0,0,0,0,0,0,0,0,0,0,0,0,0,0,0,0,0,0,0,0,0,0,0,0,0,0,0,0,0,0,0,0,0,0,0,0,0,0,0,0,0,0,1,16,20,23,20,22,21,17,20,17,17,15,14,14,16,16,16,16,14,14,13,11,7,9,7,9,7,6,6,5,2,3,2,0,0,0,0,0,0,0,0,0,0,0,0,0,0,0,0,0,0,0,0,0,0,0,0,0,0,0,0,0,0,0,0,0,0,0,0,0,0,0,0,0,0,0,0,0,0,0,0,0,0,0,0,0,0,0,0,0,2,6,22,32,32,29,30,29,28,28,23,25,23,23,20,22,18,19,19,18,16,16,16,16,16,14,15,16,13,14,11,13,11,10,10,10,10,5,7,6,6,4,3,5,2,0,4,0,0,0,2,1,0,0,0,0,0,0,0,0,0,0,0,0,0,0,0,0,0,0,0,0,0,0,0,0,0,0,1,9,12,11,11,9,9,7,9,4,4,3,1,3,4,14,13,13,14,12,12,10,13,11,11,7,10,5,3,4,5,2,4,8,3,3,13,12,13,10,9,10,5,5,5,2,6,10,14,16,16,15,15,14,13,13,11,12,10,9,9,5,6,5,5,3,3,3,5,0,1,0,3,3,0,0,2,0,0,0,0,0,0,0,0,0,0,0,0,0,0,0,0,0,0,0,0,0,0,0,0,0,0,0,0,0,0,0,0,0,0,0,0,0,0,0,0,0,0,0,0,0,0,0,0,0,0,0,0,0,0,0,0,0,0,1,2,3,2,4,2,2,0,2,3,1,3,2,2,1,0,0,0,0,0,0,0,0,0,0,0,0,0,0,0,0,0,9,16,18,16,15,17,23,30,30,30,29,32,32,32,30,29,28,26,24,26,21,19,21,18,18,17,16,16,16,16,16,16,16,16,14,9,9,9,10,14,12,15,14,13,14,14,12,11,10,11,9,9,6,6,5,3,7,2,2,1,1,0,0,0,0,0,0,0,0,0,0,0,0,0,0,0,0,0,0,0,0,0,0,0,0,0,0,0,0,0,0,0,0,0,0,0,0,0,0,0,0,0,0,0,0,0,0,0,0,0,0,0,0,0,0,0,0,0,0,0,0,0,0,0,0,0,0,0,0,0,0,0,0,0,0,0,0,0,0,0,0,0,0,0,0,4,5,1,4,13,26,25,22,29,38,35] 
Valores do geste:MaoCima
var MaoCima1 =[0,0,0,0,0,0,0,0,0,0,0,0,0,0,0,0,0,0,0,0,0,0,0,0,0,0,0,0,0,0,0,0,0,0,0,0,0,0,0,0,0,0,0,0,0,0,0,0,0,0,0,0,0,0,0,0,0,0,0,0,0,0,0,0,0,0,0,0,0,0,0,0,0,0,0,0,0,0,0,0,0,0,0,0,0,0,0,0,0,0,0,0,0,0,0,0,0,0,0,0,0,0,0,0,0,0,0,0,0,3,3,5,7,5,6,3,2,2,2,5,4,3,0,0,0,0,0,0,0,0,0,0,0,0,0,0,0,0,0,0,0,0,0,0,0,0,0,0,0,0,0,0,0,0,0,0,0,0,0,0,0,0,0,0,0,0,0,0,0,0,0,0,0,0,0,0,0,0,0,0,0,0,0,0,0,0,0,0,0,0,0,0,0,0,0,0,0,0,1,2,1,2,2,2,4,8,10,5,6,0,0,1,0,1,3,2,0,0,0,0,0,0,0,0,0,0,0,0,0,0,0,0,0,0,0,0,0,0,0,0,0,0,0,0,0,0,0,0,0,4,10,5,7,3,0,1,0,2,0,0,0,0,0,0,0,0,0,0,0,0,0,0,0,0,0,0,0,0,0,0,0,0,0,0,0,0,0,0,0,0,0,0,0,0,0,0,0,0,0,0,0,0,0,0,0,0,0,0,0,0,0,0,0,0,0,0,0,0,0,0,0,0,0,0,0,0,0,0,0,0,0,0,0,0,0,0,0,0,0,0,0,0,0,0,0,1,3,0,0,0,0,0,0,0,0,0,0,0,0,0,0,0,0,0,0,0,0,0,0,0,0,0,0,0,0,0,0,0,0,0,0,0,0,0,0,0,0,0,0,0,0,0,0,0,0,0,0,0,0,0,0,0,0,0,0,0,0,0,0,0,0,0,0,0,0,0,0,0,0,0,0,0,0,2,0,0,0,0,0,0,0,0,0,10,10,11,11,13,14,14,13,14,13,14,14,13,11,9,7,6,7,11,10,10,7,8,7,11,7,5,4,6,14,14,10,13,13,12,12,11,10,13,10,10,11,14,11,11,13,13,16,14,16,15,11,11,13,12,16,19,30,31,29,33,40,42,44,45,48,50,51,54,58,61,63,59,62,62,63,60,61,64,63,64,64,65,66,64,64,64,61,62,64,65,65,66,65,65,64,64,64,64,63,64,64,64,64,67,66,67,65,64,64,66,63,59,61,56,55,58,60,58,56,57,58,62,62,63,62,63,64,63,64,64,64,61,62,65,66,64,64,64,64,66,64,65,64,65,64,67,70,69,68,69,66,64,66,66,64,64,64,61,62,61,64,61,57,57,53,55,51,51,50,52,51,51,52,50,50,50,48,48,48,48,48,47,47,47,45,48,44,45,43,39,39,39,38,35,43,41,37,37,38,37,38,37,36,35,33,33,32,32,32,32,31,32,32,32,29,30,30,32,29,30,25,26,26,27,25,23,22,19,19,18,16,16,14,11,12,15,13,14,16,15,14,16,10,14,14,16,16,16,16,15,7,7,10,10,6,6,6,5,4,10,5,11,16,16,16,15,15,16,16,15,14,12,10,10,9,7,7,8,6,4,2,4,1,2,0,1,2,2,1,0,0,2,3,0,0,0,0,0,0,0,0,0,0,0,0,0,0,0,0,0,0,0,0,0,0,0,0,0,0,0,0,0,0,0,0,0,0,0,0,0,0,1,4,11,12,10,7,14,13,13,11,11,9,10,8,9,7,5,3,2,4,5,13,16,17,17,20,26,37,39,38,35,35,34,33,32] 
var MaoCima2 =[881,912,940,941,966,997,997,980,984,1007,1035,1040,1057,1067,1051,1040,1040,1041,1038,1023,1008,995,978,962,944,937,922,912,910,907,895,880,865,855,842,848,869,865,856,843,833,824,815,800,784,782,769,759,752,736,725,718,704,696,687,673,669,671,657,656,647,646,645,685,719,707,702,714,716,717,710,702,695,682,672,659,650,640,630,619,620,624,627,647,667,679,678,688,687,677,674,686,679,675,667,656,649,639,625,620,610,599,590,593,610,624,624,618,615,624,624,624,623,641,677,688,687,705,729,752,747,726,726,733,726,718,711,720,707,700,691,701,708,694,686,677,678,688,685,678,683,706,751,789,784,772,785,811,804,790,782,774,768,768,765,767,752,743,725,719,709,698,688,677,667,657,646,653,668,688,690,688,675,666,672,672,667,656,653,643,639,657,672,674,670,661,655,645,635,625,617,608,599,590,582,593,602,596,611,662,685,694,727,720,716,702,689,679,668,656,647,637,629,624,613,606,593,589,578,570,560,569,578,577,574,593,608,594,588,576,573,561,558,557,571,583,590,578,571,560,551,543,545,567,598,624,666,677,719,719,705,693,683,679,670,658,652,640,625,620,611,602,592,586,576,568,560,551,545,533,528,511,503,497,492,495,493,489,488,490,488,484,492,496,495,485,478,472,469,471,464,459,449,447,441,432,437,448,451,448,438,434,426,423,430,447,474,502,541,543,534,572,623,639,688,733,752,754,752,750,742,733,722,713,703,688,679,671,658,647,640,629,621,611,605,593,594,610,638,640,650,687,720,738,784,800,792,783,777,770,758,747,734,722,715,704,691,683,694,659,647,641,629,624,613,606,601,601,609,619,624,615,607,624,629,629,621,608,597,594,588,583,573,565,558,546,539,529,523,510,499,492,490,479,471,464,455,451,446,441,432,427,420,414,407,407,407,409,404,404,394,390,387,388,385,384,384,412,464,522,548,560,614,650,645,637,628,624,624,622,613,611,607,593,588,577,572,560,551,543,531,528,530,539,539,540,544,529,525,528,511,511,503,502,496,489,479,471,464,458,453,453,445,439,432,426,419,411,405,399,394,386,381,371,368,363,359,362,365,359,356,366,395,429,422,438,483,511,534,560,573,563,560,570,576,576,564,557,548,540,530,524,511,502,495,485,479,469,462,455,448,441,434,430,424,418,406,400,400,400,395,391,387,385,384,375,370,368,360,355,349,342,336,336,329,320,316,312,305,304,298,295,301,293,298,304,322,331,368,404,431,435,432,443,457,448,445,433,429,419,416,406,400,396,387,382,377,370,366,364,361,356,346,347,343,337,336,331,324,325,323,337,335,333,326,323,319,313,306,303,297,289,289,284,279,273,272,266,260,259,254,251,247,249,246,240,235,230,225,224,221,219,210,209,204,204,205,195,192,190,185,179,180,181,192,195,205,202,198,199,194,192,192,192,183,189,191,197,211,222,224,230,229,229,229,232,229,224,223,218,214,211,209,203,201,194,193,192,187,184,181,178,174,173,169,176,198,249,305,340,354,385,414,412,405,398,393,388,384,383,377,373,369,368,373,370,368,357,371,434,511,585,593,610,643,665,661,653,642,634,625,614,605,593,589,578,571,560,552,543,531,525,511,505,498,493,482,481,483,475,469,464,459,457,448,438,434,432,432,435,429,419,432,451,454,447,434,437,432,432,426,379,410,405,399,394,386,381,371,368,367,358,354,355,347,345,362,391,439,464,459,464,464,462,466,470,489,492,486,481,476,466,463,452,448,443,434,430,421,414,415,416,414,401,400,414,453,530,570,567,591,609,613,613,597,592,583,575,561,559] 
Valores do geste:MaoBaixo
var MaoBaixo1 =[375,375,374,367,361,357,362,361,354,350,343,336,335,329,323,318,312,308,303,313,336,354,355,356,359,363,355,351,347,342,336,332,330,330,330,323,322,318,305,310,316,319,319,307,307,304,301,296,289,288,285,278,275,273,271,265,263,259,251,245,243,240,242,258,243,240,238,234,240,237,232,230,229,226,229,226,225,224,219,213,214,217,219,222,226,221,215,211,209,208,201,199,194,194,192,187,181,182,177,177,173,170,164,163,164,166,164,160,155,164,163,162,166,170,172,169,167,170,163,165,169,172,175,176,176,178,176,176,170,173,175,175,175,172,193,211,213,223,227,222,219,215,213,217,217,216,211,208,206,202,193,193,192,191,187,183,179,176,176,173,165,165,158,156,154,152,147,144,145,142,138,134,139,143,141,144,142,137,140,133,131,129,127,125,115,113,113,112,112,124,112,112,109,107,102,101,97,103,107,106,108,107,102,101,104,103,105,102,108,112,112,112,113,115,116,112,111,109,103,102,103,107,106,108,106,105,108,104,99,102,103,105,104,98,96,95,91,91,88,86,82,80,80,80,75,78,74,73,69,68,65,63,64,64,61,59,64,64,77,90,99,96,93,95,90,87,86,86,82,81,80,80,81,81,83,79,79,78,75,75,69,71,80,86,89,90,96,106,105,108,110,108,110,111,110,110,109,105,101,106,114,116,122,125,125,122,122,116,114,117,119,116,115,112,112,112,112,109,107,106,102,105,101,99,94,93,90,92,87,83,85,94,97,95,97,94,106,111,107,101,101,103,103,109,112,113,112,111,110,106,102,103,98,97,100,94,97,96,95,94,98,98,98,95,91,95,98,96,103,105,110,107,105,101,104,109,110,112,112,112,112,112,111,110,107,105,107,111,112,111,109,103,103,109,107,111,107,102,98,99,101,97,96,90,93,96,90,90,96,93,97,101,99,109,130,144,159,161,157,153,150,146,146,147,145,143,135,136,130,129,128,123,126,126,125,121,116,126,138,140,146,150,145,149,151,149,147,157,161,157,159,152,154,150,146,144,141,138,138,133,129,128,126,122,119,125,128,129,129,130,134,132,131,129,128,123,122,121,117,115,114,112,112,108,106,105,101,99,96,103,107,109,106,108,102,107,113,113,128,131,135,138,139,142,140,137,133,128,127,126,122,124,128,126,121,126,128,130,130,130,128,124,126,123,119,123,119,115,116,113,112,109,105,105,102,99,99,99,99,98,94,91,91,87,81,84,85,84,85,80,80,80,78,77,73,73,71,67,67,64,64,64,62,57,60,62,62,60,59,58,54,51,51,49,48,48,47,46,46,48,50,53,77,112,133,141,143,154,162,167,166,165,159,159,158,162,165,171,165,175,174,171,167,160,158,159,163,163,162,158,157,150,146,146,143,140,141,137,133,132,129,128,123,119,117,115,113,112,111,111,112,112,114,110,113,110,106,110,112,119,133,130,128,129,126,127,124,122,116,113,113,112,112,112,112,112,111,109,109,112,128,131,141,132,137,134,129,128,126,126,121,118,115,113,109,110,113,125,127,133,127,128,130,123,128,134,134,130,130,131,132,133,131,129,127,126,122,119,116,114,114,110,111,109,103,103,99,98,94,92,94,95,96,95,98,94,92,94,109,122,129,133,144,144,143,144,144,142,141,136,131,129,128,126,123,119,119,115,112,111,110,112,112,109,112,112,118,129,128,130,137,134,135,136,134,133,131,133,131,131,129,127,124,118,115,112,112,110,109,103,105,101,99,103,117,133,138,142,142,144,144,141,142,143,142,139,136,135,133,130,128,128,126,119,119,115,112,113,111,104] 
var MaoBaixo2 =[0,0,0,0,0,0,0,0,0,0,0,0,0,0,0,0,0,0,0,0,0,0,0,0,0,0,0,0,0,0,0,0,0,0,0,0,0,0,0,0,0,0,0,0,0,0,0,0,0,0,0,0,0,0,0,0,0,0,0,0,0,0,0,0,0,0,0,0,0,0,0,0,0,0,0,0,0,0,0,0,0,0,0,0,0,0,0,0,0,0,0,0,0,0,0,0,0,0,0,0,0,0,0,0,0,0,0,0,0,0,0,0,0,0,0,0,0,0,0,0,0,0,0,0,0,0,0,0,0,0,0,0,0,0,0,0,0,0,0,0,0,0,0,0,0,0,0,0,0,0,0,0,0,0,0,0,0,0,0,0,0,0,0,0,0,0,0,0,0,0,0,0,0,0,0,0,0,0,0,0,0,0,0,0,0,0,0,0,0,0,0,0,0,0,0,0,0,0,0,0,0,0,0,0,0,0,0,0,0,0,0,0,0,0,0,0,0,0,0,0,0,0,0,0,0,0,0,0,0,0,0,0,0,0,0,0,0,0,0,0,0,0,0,0,0,0,0,0,0,0,0,0,0,0,0,0,0,0,0,0,0,0,0,0,0,0,0,0,0,0,0,0,0,0,0,0,0,0,0,0,0,0,0,0,0,0,0,0,0,0,0,0,0,0,0,0,0,0,0,0,0,0,0,0,0,0,0,0,0,0,0,0,0,0,0,0,0,0,0,0,0,0,0,0,0,0,0,0,0,0,0,0,0,0,0,0,0,0,0,0,0,0,0,0,0,0,0,0,0,0,0,0,0,0,0,0,0,0,0,0,0,0,0,0,0,0,0,0,0,0,0,0,0,0,0,0,0,0,0,0,0,0,0,0,0,0,0,0,0,0,0,0,0,0,0,0,0,0,0,0,0,0,0,0,0,0,0,0,0,0,0,0,0,0,0,0,0,0,0,0,0,0,0,0,0,0,0,0,0,0,0,0,0,0,0,0,0,0,0,0,0,0,0,0,0,0,0,0,0,0,0,0,0,0,0,0,0,0,0,0,0,0,0,0,0,0,0,0,0,0,0,0,0,0,0,0,0,0,0,0,0,0,0,0,0,0,0,0,0,0,0,0,0,0,0,0,0,0,0,0,0,0,0,0,0,0,0,0,0,0,0,0,0,0,0,0,0,0,0,0,0,0,0,0,0,0,0,0,0,0,0,0,0,0,0,0,0,0,0,0,0,0,0,0,0,0,0,0,0,0,0,0,0,0,0,0,0,0,0,0,0,0,0,0,0,0,0,0,0,0,0,0,0,0,0,0,0,0,0,0,0,0,0,0,0,0,0,0,0,0,0,0,0,0,0,0,0,0,0,0,0,0,0,0,0,0,0,0,0,0,0,0,0,0,0,0,0,0,0,0,0,0,0,0,0,0,0,0,0,0,0,0,0,0,0,0,0,0,0,0,0,0,0,0,0,0,0,0,0,0,0,0,0,0,0,0,0,0,0,0,0,0,0,0,0,0,0,0,0,0,0,0,0,0,0,0,0,0,0,0,0,0,0,0,0,0,0,0,0,0,0,0,0,0,0,0,0,0,0,0,0,0,0,0,0,0,0,0,0,0,0,0,0,0,0,0,0,0,0,0,0,0,0,0,0,0,0,0,0,0,0,0,0,0,0,0,0,0,0,0,0,0,0,0,0,0,0,0,0,0,0,0,0,0,0,0,0,0,0,0,0,0,0,0,0,0,0,0,0,0,0,0,0,0,0,0,0,0,0,0,0,0,0,0,0,0,0,0,0,0,0,0,0,0,0,0,0,0,0,0] 
Valores do geste:Pinça
var Pinça1 =[0,0,0,0,0,0,0,0,0,0,0,0,0,0,0,0,0,0,0,0,0,0,0,0,0,0,0,0,0,0,0,0,0,0,0,0,0,0,0,0,0,0,0,0,0,0,0,0,0,0,0,0,0,0,0,0,0,0,0,0,0,0,0,0,0,0,0,0,0,0,0,0,0,0,0,0,0,0,0,0,0,0,0,0,0,0,0,0,0,0,0,0,0,0,0,0,0,0,0,0,0,0,0,0,0,0,0,0,0,0,0,0,0,0,0,0,0,0,0,0,0,0,0,0,0,0,0,0,0,0,0,0,0,0,0,0,0,0,0,0,0,0,0,0,0,0,0,0,0,0,0,0,0,0,0,0,0,0,0,0,0,0,0,0,0,0,0,0,0,0,0,0,0,0,0,4,3,7,7,7,9,8,6,7,7,10,11,14,14,10,11,12,10,9,9,7,8,7,7,7,6,5,3,5,2,3,1,5,5,7,7,9,9,5,5,3,1,0,0,0,0,0,0,0,0,0,0,0,0,0,0,0,0,0,0,0,0,0,0,0,0,0,0,0,2,3,6,4,0,4,0,1,0,0,3,0,0,3,10,13,13,10,13,8,14,12,15,16,16,13,10,13,11,9,12,7,6,4,3,6,7,2,1,1,0,0,0,0,0,0,0,0,3,3,3,6,5,5,7,9,7,6,6,2,3,0,0,0,0,0,1,2,0,2,1,0,0,0,0,0,0,0,0,0,0,0,0,0,0,0,0,0,0,0,0,0,0,0,0,0,0,0,0,0,0,0,0,0,0,0,0,0,0,0,0,0,0,0,0,0,0,0,0,0,0,0,0,0,0,0,0,0,0,0,0,0,0,0,0,0,0,0,0,0,0,0,0,0,0,0,0,0,0,0,0,0,0,0,0,0,0,0,0,0,0,0,0,0,0,0,0,0,0,0,0,0,0,0,0,0,0,0,0,0,0,0,0,0,0,0,0,0,0,0,0,0,0,0,0,0,0,0,0,0,0,0,0,0,0,0,0,0,0,0,0,0,0,0,0,0,0,0,0,0,0,0,0,0,0,0,0,0,0,0,0,0,0,0,0,0,0,0,5,10,5,7,9,6,6,8,5,2,2,0,3,2,0,0,0,0,0,1,0,0,0,0,0,0,0,0,0,0,0,0,0,0,0,2,4,6,9,4,3,2,3,1,1,0,0,0,0,0,0,0,0,0,0,0,0,0,0,2,0,0,1,0,0,0,1,2,5,11,16,19,19,20,18,20,17,20,16,16,17,16,12,15,15,16,14,13,14,15,11,11,13,15,16,16,21,23,23,26,25,21,21,21,20,18,16,18,14,16,15,16,16,16,16,14,15,16,11,13,12,12,9,11,6,8,9,6,4,6,0,0,0,0,0,0,0,0,0,0,0,0,0,0,0,0,0,3,3,1,0,0,0,0,0,0,0,0,0,0,0,0,0,0,0,0,0,0,0,0,1,3,6,1,1,2,2,0,0,1,0,0,0,0,0,0,0,0,0,0,0,0,0,0,0,0,0,0,0,0,0,0,0,0,0,0,0,0,0,0,0,0,0,0,0,0,0,0,0,0,0,0,0,0,0,0,0,0,0,0,0,0,0,0,0,0,0,0,0,0,0,0,0,0,0,0,0,1,5,16,26,32,31,38,48,48,46,48,43,45,44,42,38,42,39,38,36,34,33,33,29,28,29,27,28,25,25,22,22,18,18,16,17,16,16,14,13,16,11,11,10,9,11,10,7,7,7,4,5,5,3,2,3,1,1,0,0,0,0,0,0,0,0,0,0,0,0,0] 
var Pinça2 =[105,91,94,99,108,112,115,126,134,141,139,133,137,140,141,142,139,139,144,150,155,154,147,147,143,143,139,138,134,131,133,129,128,128,123,121,114,115,112,112,111,109,103,106,105,106,96,97,95,93,92,92,88,86,81,80,80,82,81,80,82,87,95,99,101,108,112,112,116,116,118,115,112,112,110,103,99,101,100,97,98,93,92,90,89,87,95,100,101,99,94,93,94,94,90,90,86,87,91,95,95,89,86,89,97,104,102,105,108,116,123,121,118,114,113,112,109,108,106,105,103,98,98,97,93,90,89,86,89,81,83,80,80,79,78,76,75,71,69,69,65,64,64,62,62,64,64,59,58,63,64,64,71,75,76,70,71,66,69,67,67,67,67,67,64,63,62,57,57,55,51,51,51,62,63,65,65,63,62,59,58,65,75,74,75,71,70,66,65,62,62,64,62,58,56,48,51,50,56,60,64,60,59,57,58,55,52,50,52,48,49,48,47,45,43,43,39,38,38,38,39,37,35,41,33,62,60,55,55,59,62,64,64,71,74,75,79,76,76,85,85,84,82,92,95,97,99,103,99,93,92,89,89,86,83,82,80,81,80,79,78,75,75,68,71,69,65,69,67,64,64,62,59,62,58,57,54,51,57,64,65,67,64,65,66,64,59,60,62,59,59,67,65,64,64,64,63,61,60,58,57,55,53,54,50,53,57,64,48,64,63,61,58,61,57,69,52,54,59,64,64,65,64,64,58,60,58,59,56,52,52,50,51,48,46,48,66,80,96,112,112,128,146,164,173,175,176,179,177,175,173,167,166,162,159,157,154,145,146,144,143,138,138,132,134,129,128,125,119,122,118,116,113,112,110,102,107,102,99,98,96,95,91,91,90,83,84,82,80,79,76,76,71,74,71,67,69,67,64,64,61,63,59,59,55,54,55,53,51,48,47,48,46,46,45,45,47,53,51,51,48,48,48,47,47,48,51,68,82,82,81,81,80,80,74,75,75,77,74,71,70,67,65,66,66,64,64,64,64,63,63,63,63,62,59,57,54,50,48,53,49,46,47,45,43,42,45,43,48,58,60,60,55,59,62,59,60,59,58,58,65,65,64,59,61,57,59,59,64,77,80,81,83,80,80,83,81,80,78,80,89,101,107,112,113,114,124,126,124,121,118,114,112,112,110,110,109,102,97,95,96,94,94,91,93,90,86,82,82,80,78,77,78,73,73,69,71,76,77,78,74,75,70,67,67,64,67,64,64,64,60,62,62,64,61,58,60,63,67,80,86,87,97,96,95,99,98,100,96,98,100,96,93,94,90,89,87,92,95,103,111,115,122,127,128,125,126,125,117,114,112,112,112,110,108,112,107,106,102,99,97,95,92,91,89,89,84,82,80,80,78,74,69,64,65,73,80,81,80,80,91,98,106,112,111,110,112,111,109,105,103,101,98,96,95,90,88,85,84,80,80,80,79,77,79,74,71,70,67,67,65,64,68,70,71,73,75,76,77,78,78,76,71,74,73,67,67,66,66,65,68,67,64,64,63,63,61,61,59,59,57,58,62,63,61,57,54,60,68,70,71,67,69,79,87,92,94,90,89,87,84,85,83,80,79,79,73,73,70,70,67,67,65,62,64,64,63,60,61,62,57,58,57,55,51,52,51,50,48,48,48,53,55,50,48,48,48,48,48,48,49,48,47,50,59,59,59,57,58,55,54,54,53,55,51,54,52,49,49,48,47,45,44,42,43,40,37,38,38,35,37,34,32,32,33,34,26,27,27,25,25,29,32,39,43,39,41,37,36,34,34,33,32,30,29,28,28,28,26,26] 
