Nome do usuário:
Clara D'avila
Idade do usuário:
21
Sexo do usuário:
Feminino
Pratica exercicios?
sim
Frequencia: 3

Valores do geste:Aberta
var Aberta1 =[294,289,283,277,277,281,281,282,282,278,279,283,282,283,288,298,306,309,305,313,317,319,315,313,313,306,296,299,299,295,301,301,303,299,295,294,296,292,289,286,275,278,286,299,313,326,327,327,333,331,326,331,329,334,342,349,347,349,346,342,337,336,327,332,330,336,333,331,334,336,338,341,350,367,371,375,368,362,359,365,368,368,368,369,369,368,367,354,352,349,346,343,339,338,336,336,334,334,335,333,330,323,318,315,314,309,303,303,300,299,304,310,315,318,318,314,311,310,318,317,310,307,314,320,313,308,304,301,295,292,283,279,278,284,288,290,294,291,285,285,290,294,298,303,303,301,299,294,289,287,276,273,272,272,275,278,276,273,272,272,273,272,271,272,273,275,275,272,270,268,262,256,253,258,274,304,341,352,347,339,336,333,336,335,325,323,319,329,342,362,371,368,371,369,368,368,359,363,372,384,384,370,369,368,366,356,354,358,364,363,362,365,368,364,359,354,351,346,338,334,335,332,331,327,324,328,333,336,342,345,344,341,337,336,335,327,332,347,365,369,381,391,386,381,378,374,372,368,368,363,352,346,343,343,343,347,350,353,353,355,351,350,348,338,340,342,340,336,336,333,327,325,321,322,327,336,357,369,378,384,385,384,384,384,383,382,375,367,364,367,373,371,368,368,362,353,348,338,335,334,331,334,336,346,362,371,373,380,378,369,368,368,369,368,360,357,358,356,355,353,355,350,345,341,343,337,336,335,333,327,329,326,319,310,311,316,322,320,319,309,308,311,310,311,310,310,310,309,308,307,305,302,297,289,290,295,305,316,318,319,310,308,309,307,309,306,305,308,309,306,306,316,328,331,333,334,334,322,331,332,338,343,351,358,352,351,351,361,368,378,384,386,386,384,381,378,375,368,367,365,362,358,352,355,359,362,361,358,353,347,343,342,341,342,346,338,343,358,367,368,363,361,353,359,369,375,382,382,384,386,397,400,400,407,411,402,397,393,384,375,373,368,365,360,357,356,355,356,355,349,341,342,340,336,335,339,342,344,337,335,331,326,322,318,320,323,321,321,325,326,331,329,329,329,330,336,332,330,327,327,321,317,313,305,303,300,298,307,320,319,326,322,320,320,321,321,321,318,310,304,304,304,303,304,304,303,295,294,289,289,291,297,297,294,293,295,295,289,287,284,278,272,273,272,272,273,281,276,279,275,275,278,281,287,291,293,289,283,289,302,307,307,302,304,302,295,293,285,290,303,304,304,304,295,293,290,288,277,274,275,272,272,272,272,271,272,275,281,287,286,278,274,272,267,271,272,273,283,288,284,282,283,283,278,276,271,272,273,274,272,273,277,286,285,280,272,272,271,267,266,258,253,251,247,247,240,246,258,263,270,271,263,259,256,250,246,250,250,249,253,256,256,263,265,266,263,258,254,247,251,253,261,265,265,261,257,256,256,258,253,241,240,237,240,240,239,238,235,240,245,251,253,256,261,257,257,256,249,253,267,283,287,297,299,293,288,281,273,272,270,272,273,272,270,260,259,259,263,259,256,251,251,249,246,242,242,238,240,237,233,233,227,225,221,217,213,212,208,207,201,198,194,192,185,185,179,180,178,178,176,177,176,176,176,174,171,169,166,158,159,157,154,157,165,177,192,192,199,202,199,198,203,208,207,204,208,223,239,240,244,244,241,240,240,240,234,240,242,247,241,240,241,240,237,240,242,252,247,245,241,239,233,227,225,224,221,218,213,210,208,208,205,200,197,193,193,187,191,192,192,192,189,183,182,181,179,180,175,176,176,176,176,173,173,169,163,161,160,157,154] 
var Aberta2 =[0,0,0,0,0,0,0,0,0,0,0,0,0,0,0,0,0,0,0,0,0,0,0,0,0,0,0,0,0,0,0,0,0,0,0,0,0,0,0,0,0,0,0,0,0,0,0,0,0,0,0,0,0,0,0,0,0,0,0,0,0,0,0,0,0,0,0,0,0,0,0,0,0,0,0,0,0,0,0,0,0,0,0,0,0,0,0,0,0,0,0,0,0,0,0,0,0,0,0,0,0,0,0,0,0,0,0,0,0,0,0,0,0,0,0,0,0,0,0,0,0,0,0,0,0,0,0,0,0,0,0,0,0,0,0,0,0,0,0,0,0,0,0,0,0,0,0,0,0,0,0,0,0,0,0,0,0,0,0,0,0,0,0,0,0,0,0,0,0,0,0,0,0,0,0,0,0,0,0,0,0,0,0,0,0,0,0,0,0,0,0,0,0,0,0,0,0,0,0,0,0,0,0,0,0,0,0,0,0,0,0,0,0,0,0,0,0,0,0,0,0,0,0,0,0,0,0,0,0,0,0,0,0,0,0,0,0,0,0,0,0,0,0,0,0,0,0,0,0,0,0,0,0,0,0,0,0,0,0,0,0,0,0,0,0,0,0,0,0,0,0,0,0,0,0,0,0,0,0,0,0,0,0,0,0,0,0,0,0,0,0,0,0,0,0,0,0,0,0,0,0,0,0,0,0,0,0,0,0,0,0,0,0,0,0,0,0,0,0,0,0,0,0,0,0,0,0,0,0,0,0,0,0,0,0,0,0,0,0,0,0,0,0,0,0,0,0,0,0,0,0,0,0,0,0,0,0,0,0,0,0,0,0,0,0,0,0,0,0,0,0,0,0,0,0,0,0,0,0,0,0,0,0,0,0,0,0,0,0,0,0,0,0,0,0,0,0,0,0,0,0,0,0,0,0,0,0,0,0,0,0,0,0,0,0,0,0,0,0,0,0,0,0,0,0,0,0,0,0,0,0,0,0,0,0,0,0,0,0,0,0,0,0,0,0,0,0,0,0,0,0,0,0,0,0,0,0,0,0,0,0,0,0,0,0,0,0,0,0,0,0,0,0,0,0,0,0,0,0,0,0,0,0,0,0,0,0,0,0,0,0,0,0,0,1,0,0,0,3,3,5,3,3,6,3,80,3,0,2,0,0,3,1,0,1,0,1,3,2,3,2,0,0,0,0,0,0,0,0,0,0,0,0,0,0,0,0,0,0,0,0,0,0,0,0,0,0,0,0,0,0,0,0,0,0,0,0,0,0,0,0,0,0,0,0,0,0,0,0,0,0,0,0,0,0,0,0,0,0,0,0,0,0,0,0,0,0,0,3,2,0,2,1,1,0,0,0,0,0,0,0,0,0,0,0,0,0,0,0,0,0,0,0,0,0,0,0,0,0,0,0,0,0,6,7,9,16,5,5,3,6,6,5,7,5,4,2,2,0,0,0,0,0,0,0,0,0,0,0,0,4,2,3,4,3,2,1,0,1,0,0,0,0,0,0,0,0,0,4,12,19,22,19,29,26,21,23,20,20,33,33,26,30,30,27,24,26,26,23,24,21,20,23,21,20,18,17,16,16,15,16,14,14,10,10,7,8,12,13,12,7,7,6,5,7,8,3,2,3,0,1,0,0,0,0,0,0,0,0,0,0,0,0,0,0,0,0,0,0,0,0,0,0,0,0,0,0,0,0,0,0,0,0,0,0,0,0,0,0,0,0,0,0,0,0,0,0,0,0,0,0,5,11,10,9,16,17,17,17,16,15,14,16,16,17,21,20,16,18,21,21,27,28,27,27,23,25,26,23,17] 
Valores do geste:Fechada
var Fechada1 =[511,511,508,511,535,545,546,545,547,566,565,560,555,551,549,544,542,539,529,531,537,539,538,528,525,528,536,544,551,554,555,563,563,559,551,538,529,528,511,502,500,496,501,528,545,545,535,532,534,539,540,547,541,557,578,605,621,618,610,608,611,603,592,585,579,575,576,575,574,562,560,562,571,567,567,576,593,619,625,624,611,605,619,639,650,641,645,651,665,683,690,686,678,672,677,673,665,664,658,656,642,639,641,662,678,669,670,671,667,662,656,642,640,647,643,641,637,635,637,628,630,637,635,630,624,625,648,651,642,639,632,636,649,653,644,635,624,624,615,607,612,622,620,614,603,598,603,605,598,589,582,582,577,577,576,571,567,563,561,567,573,578,588,592,590,590,584,588,586,584,580,587,589,594,598,604,598,592,580,575,567,560,551,542,531,539,550,560,560,564,560,566,562,559,555,562,572,563,562,564,564,572,577,572,574,566,563,560,560,563,566,563,555,556,543,547,539,532,527,527,528,529,555,571,586,592,587,599,626,631,631,625,623,618,621,623,613,605,603,599,592,588,576,575,586,592,587,577,577,579,579,571,560,556,547,545,537,535,537,534,529,528,528,537,540,531,539,557,574,593,618,634,635,638,638,625,639,655,642,637,627,621,619,622,613,605,611,620,625,633,650,656,656,651,656,671,672,669,674,673,681,673,665,669,675,661,663,671,683,679,673,661,657,652,642,635,634,640,641,635,631,625,621,649,679,698,691,686,679,673,667,685,695,690,708,721,720,711,712,725,724,731,723,715,707,702,691,682,680,685,683,679,667,661,656,656,652,648,638,630,621,615,607,604,593,592,592,593,593,589,587,578,572,566,560,561,557,549,545,547,541,531,525,510,503,497,496,491,494,493,479,480,481,481,483,486,487,487,483,471,464,464,460,453,448,448,451,464,480,488,486,487,509,558,603,626,627,639,625,624,629,656,687,695,689,699,723,751,761,764,759,753,750,738,725,723,735,721,714,705,698,685,682,682,673,659,656,647,641,641,635,653,669,669,673,688,691,683,688,709,713,705,712,720,717,725,734,746,739,759,783,777,769,765,763,757,752,752,759,752,749,752,757,754,746,757,791,818,816,819,833,835,833,850,865,862,852,848,846,837,827,831,832,816,816,827,839,850,847,840,843,831,822,816,809,795,789,780,766,757,747,733,724,717,705,703,691,680,672,662,654,649,646,642,631,626,624,624,622,615,608,602,593,593,593,587,578,581,581,570,561,555,552,552,554,544,539,541,547,555,549,550,544,544,539,537,543,543,539,534,531,535,551,563,573,571,581,589,583,583,576,572,577,596,592,589,594,601,621,644,646,636,634,635,630,630,640,638,635,627,618,612,607,603,625,629,637,656,656,642,635,629,623,611,599,595,602,606,607,599,597,596,604,609,611,607,602,592,593,598,592,585,580,576,566,560,560,555,551,543,548,557,551,543,540,531,511,511,511,507,499,493,485,475,465,463,464,466,471,478,478,474,470,464,461,466,480,495,507,503,527,535,539,534,528,528,528,538,531,529,530,528,526,510,509,502,498,492,493,499,510,509,502,496,497,496,490,482,474,470,485,492,481,474,471,471,467,462,455,464,478,489,490,487,487,495,521,551,570,574,582,585,573,565,573,597,620,629,624,629,651,655,656,658,654,656,660,656,648,646,643,641,633,637,627,637,646,639,631,642,655,658,656,651,641,630,624,623,624,619,624,625,623,615,607,597,594,590,592,593,587,577,569,560,555,549,541,530,528,526,522,511,511,525,510,505,503,506,501,498,502,500,497,488,491,495,490,479,479,476] 
var Fechada2 =[3205,3172,3199,3183,3129,3087,3047,3041,3024,2983,2989,2961,2947,2962,2952,3025,3139,3188,3146,3098,3062,3061,3029,2983,2934,2935,2907,2886,2893,2883,2858,2816,2805,2813,2805,2763,2730,2693,2645,2628,2624,2598,2559,2558,2590,2595,2559,2518,2493,2486,2495,2479,2469,2450,2421,2391,2355,2356,2383,2401,2384,2355,2342,2318,2301,2275,2283,2303,2319,2288,2252,2240,2230,2210,2253,2319,2353,2324,2315,2316,2321,2316,2314,2307,2299,2289,2265,2238,2247,2235,2241,2229,2224,2234,2212,2215,2192,2213,2218,2190,2186,2189,2174,2212,2262,2304,2348,2355,2330,2306,2293,2310,2306,2284,2283,2289,2333,2357,2333,2350,2404,2445,2478,2481,2462,2462,2524,2590,2588,2545,2519,2491,2453,2422,2416,2413,2390,2368,2375,2350,2352,2358,2355,2350,2321,2313,2341,2343,2310,2292,2256,2224,2193,2175,2175,2193,2240,2241,2215,2230,2266,2439,2351,2424,2462,2442,2448,2459,2453,2465,2438,2477,2544,2590,2625,2634,2623,2653,2625,2590,2556,2550,2627,2752,2832,2907,2995,3013,2987,2942,2894,2864,2850,2818,2816,2794,2775,2790,2769,2779,2796,2777,2743,2726,2715,2679,2640,2624,2609,2601,2559,2559,2611,2647,2670,2662,2624,2624,2663,2762,2855,2910,2917,2901,2864,2873,2942,3004,3050,3053,3056,3056,3039,2992,2958,2934,2907,2877,2863,2858,2896,2970,3023,3021,2965,2942,2988,3107,3203,3223,3194,3253,3311,3316,3258,3248,3264,3266,3232,3280,3334,3330,3303,3250,3193,3151,3091,3028,2985,2937,2955,2986,3001,2969,2935,2883,2838,2815,2800,2763,2731,2705,2731,2733,2693,2655,2611,2559,2541,2519,2532,2559,2599,2609,2583,2559,2592,2582,2547,2531,2554,2613,2698,2786,2817,2817,2815,2789,2768,2818,2910,3013,3131,3199,3200,3386,3581,3733,3835,3849,3843,3792,3710,3696,3699,3675,3632,3583,3507,3467,3433,3439,3426,3409,3369,3291,3253,3199,3149,3125,3085,3031,3023,3009,2981,2945,2903,2871,2831,2783,2746,2716,2714,2724,2718,2702,2688,2663,2640,2613,2612,2641,2667,2663,2665,2646,2660,2671,2722,2751,2722,2703,2715,2731,2750,2768,2738,2713,2711,2753,2801,2830,2882,2894,2877,2861,2826,2788,2752,2707,2667,2628,2591,2559,2526,2527,2559,2606,2609,2610,2581,2559,2559,2531,2498,2480,2478,2512,2559,2607,2608,2716,2802,2837,2821,2798,2784,2762,2721,2736,2805,2891,2933,2943,2901,2864,2855,2864,2901,2934,2943,2923,2880,2842,2816,2794,2795,2842,2881,2849,2827,2850,2847,2804,2788,2790,2783,2746,2752,2785,2773,2737,2719,2807,2951,3062,3141,3151,3119,3071,3082,3087,3043,3029,3021,3024,3043,3043,2993,2963,2960,3025,3165,3343,3507,3536,3529,3650,3703,3779,3846,3843,3842,3845,3847,3854,3839,3755,3662,3569,3494,3418,3402,3376,3331,3301,3282,3317,3396,3507,3599,3551,3606,3706,3845,3852,3846,3839,3857,3847,3849,3771,3696,3643,3553,3475,3407,3361,3331,3289,3263,3233,3179,3126,3117,3156,3295,3400,3374,3322,3271,3269,3359,3426,3457,3407,3342,3280,3297,3335,3303,3285,3327,3357,3361,3375,3440,3495,3474,3396,3343,3286,3237,3169,3120,3065,3041,3046,3029,2986,2941,2911,2914,2929,2945,2958,2962,2935,2945,2976,2978,2930,2889,2844,2813,2779,2768,2773,2781,2816,2807,2800,2787,2753,2710,2686,2727,2816,2939,3093,3216,3199,3248,3344,3312,3293,3291,3265,3255,3197,3157,3173,3186,3164,3109,3081,3085,3042,3015,3005,3018,3008,2992,2945,2897,2884,2917,2975,3002,2992,2934,2901,2864,2829,2816,2794,2773,2770,2747,2724,2694,2663,2653,2657,2628,2600,2617,2609,2663,2718,2775,2794,2757,2715,2677,2658,2661,2677,2684,2647,2615,2593,2559,2539,2507,2485,2480,2452,2448,2480,2544,2608,2670,2717,2711,2732,2765,2733,2704,2717,2788,2881,2958,3013,3025,3014,2965,2943,2954,3008,3093,3091,3061,3127,3245,3306,3297,3234,3179,3147,3125,3123,3120,3103,3056,3007,2998,2987,2958,2903,2868,2882,2962,3053,3101,3093,3045,2991,2944,2930,2942,2954,2928,2945,2917,2944,3052,3189,3348,3532,3567,3570,3728,3850,3842,3839,3842,3841,3829,3851,3843,3851,3854,3860,3857,3861,3856,3862,3854,3852,3850,3847,3850,3847,3863,3859,3858,3861,3865,3851,3855,3856,3851,3846,3857,3854,3861,3856,3856,3856,3856,3853,3845,3849,3854,3851,3862,3856,3856,3856,3819,3733,3661,3583,3526,3500,3483,3506,3505,3439,3372,3430,3643,3844,3851,3850,3777,3728,3699,3630,3600,3558,3568,3579,3533,3450,3381,3324,3280,3215] 
Valores do geste:MaoCima
var MaoCima1 =[550,547,543,543,539,548,576,606,640,653,656,656,663,682,682,674,665,656,650,654,656,655,646,640,624,624,627,640,651,640,640,629,619,611,613,618,615,607,593,591,582,577,576,571,566,558,555,559,560,558,556,547,542,531,531,526,526,528,541,546,551,560,559,559,560,602,645,643,648,646,637,625,623,621,626,625,616,614,614,609,599,595,592,583,587,594,607,615,610,597,591,581,576,564,560,555,554,550,555,560,565,561,559,552,544,539,539,537,528,524,511,501,499,501,499,509,502,509,525,523,540,563,574,571,581,598,608,609,608,605,594,588,582,577,564,559,547,539,546,557,553,548,566,594,624,622,609,606,596,589,579,572,564,559,561,565,576,575,571,571,573,587,589,590,585,577,575,559,575,583,594,592,589,582,592,591,587,592,589,591,606,623,626,622,610,607,599,594,585,584,587,595,610,624,639,644,636,630,625,619,613,609,610,603,592,594,592,593,594,588,579,575,576,573,563,560,561,565,560,566,582,595,592,593,592,592,589,579,578,578,576,576,564,566,561,554,542,541,541,549,543,529,524,511,511,523,511,511,503,498,496,496,486,492,499,497,496,496,489,496,509,511,525,509,504,503,507,528,542,549,549,544,543,557,571,571,560,558,558,555,555,550,553,563,573,587,586,581,576,567,567,567,563,565,569,576,581,592,592,587,594,589,581,581,576,571,563,561,564,565,561,561,576,589,585,587,589,592,595,606,592,601,607,601,592,587,586,577,575,575,576,589,591,590,582,574,570,574,577,591,594,593,599,603,600,607,618,618,611,601,604,622,625,628,635,627,619,614,609,599,601,592,586,580,574,566,557,553,549,546,535,538,534,541,539,540,548,557,550,547,535,531,523,528,529,543,549,558,560,567,572,569,567,589,603,594,592,587,590,592,597,617,619,619,626,625,622,625,641,665,688,686,684,673,670,671,677,687,702,707,712,705,698,688,677,673,661,655,653,656,663,673,675,674,676,675,673,687,688,683,669,666,668,655,645,646,640,631,628,630,640,646,679,707,733,749,741,726,722,715,707,710,707,699,687,675,662,672,679,691,694,709,719,709,703,704,706,720,729,737,739,734,722,720,713,705,695,688,679,681,688,688,688,688,675,663,656,647,635,626,621,615,601,592,584,577,576,576,592,602,597,593,594,592,597,613,624,634,645,651,656,659,670,674,673,665,656,653,641,643,666,694,726,746,745,752,742,747,740,737,740,737,722,725,736,747,755,768,767,752,751,739,738,738,747,738,735,727,719,710,703,690,688,677,667,659,657,663,670,669,671,682,701,717,731,731,739,758,774,781,771,758,750,741,737,747,765,781,781,769,766,753,750,748,757,752,764,786,816,839,846,848,843,837,841,848,848,849,847,841,838,837,837,848,867,880,879,869,863,850,838,830,816,816,814,810,802,793,782,778,783,786,785,781,769,763,759,752,743,731,721,720,719,715,715,711,710,698,691,688,683,679,681,688,705,735,768,773,774,781,775,766,773,774,773,771,776,783,784,797,808,807,801,794,784,773,779,795,815,831,835,823,820,838,853,848,841,831,828,817,804,805,793,786,784,783,783,768,764,766,752,748,746,746,741,741,743,735,727,721,723,734,723,717,707,719,751,769,766,753,752,743,745,756,752,766,798,831,860,869,859,858,847,839,848,859,871,870,855,848,834,832,832,830,834,848,854,854,848,831,825,813,808,814,816,815,813,802,795,783,773,763,753,766,771,763,761,759,750,755,770,779,775,764,756,765,767,763,759,758,752,743,705,727,719,707,699,702,704,707,709,718,726,734,741,750,761,755,743,736] 
var MaoCima2 =[3051,3005,2959,2931,2926,2915,2875,2870,2843,2802,2789,2794,2753,2715,2685,2652,2627,2640,2614,2613,2559,2542,2525,2500,2517,2500,2523,2640,2661,2643,2661,2690,2672,2704,2790,2771,2800,2890,2919,2870,2862,2906,2917,2913,2927,2890,2853,2833,2800,2817,2864,2896,2859,2832,2806,2790,2775,2771,2731,2690,2701,2677,2641,2675,2668,2721,2811,2855,2879,2853,2835,2800,2757,2710,2692,2706,2733,2704,2709,2739,2795,2800,2763,2752,2783,2880,2899,2912,2873,2850,2837,2841,2821,2813,2881,2941,2997,2985,3047,3067,3070,3186,3279,3274,3318,3290,3248,3206,3143,3118,3059,3057,3071,3044,3024,3006,2982,2976,3091,3171,3121,3065,3085,3123,3181,3173,3152,3104,3062,3017,3026,3068,3028,3024,3066,3120,3119,3203,3253,3242,3203,3219,3278,3265,3310,3392,3358,3390,3476,3442,3456,3472,3435,3362,3342,3382,3423,3459,3437,3447,3382,3389,3462,3469,3402,3366,3339,3299,3267,3213,3158,3115,3139,3153,3120,3121,3187,3218,3171,3136,3141,3109,3065,3018,2969,2922,2869,2825,2781,2738,2699,2699,2734,2814,2899,2944,2928,2931,2895,2862,2848,2827,2816,2815,2833,2832,2886,2907,2892,2881,2846,2832,2801,2768,2769,2800,2801,2846,2948,3184,3559,3681,3842,3840,3849,3847,3850,3846,3845,3854,3856,3856,3856,3847,3773,3731,3676,3634,3603,3543,3469,3427,3403,3349,3294,3223,3166,3107,3056,3040,2995,3024,3147,3163,3125,3118,3138,3130,3094,3056,3024,3020,3071,3119,3088,3027,2993,2993,2987,2935,2927,2957,2977,2946,2960,3047,3123,3079,3041,3094,3186,3227,3243,3248,3187,3143,3135,3122,3161,3191,3152,3137,3145,3155,3136,3104,3055,3010,2971,2940,2924,2895,2914,2925,2942,2932,2978,2981,2931,2882,2859,2928,3045,3088,3056,3152,3184,3138,3071,3111,3249,3267,3313,3348,3279,3229,3216,3205,3154,3162,3138,3207,3200,3216,3228,3193,3143,3120,3120,3168,3264,3408,3392,3442,3442,3410,3419,3381,3355,3335,3398,3362,3312,3245,3184,3148,3161,3158,3106,3055,3024,3030,3050,3071,3029,3071,3247,3469,3575,3541,3659,3718,3741,3696,3663,3583,3565,3687,3686,3632,3598,3542,3600,3612,3557,3519,3545,3614,3693,3654,3670,3692,3618,3553,3472,3427,3376,3312,3307,3354,3359,3408,3411,3386,3422,3451,3501,3465,3390,3360,3335,3280,3277,3350,3324,3301,3283,3217,3184,3233,3246,3204,3152,3152,3149,3174,3158,3169,3263,3376,3417,3371,3379,3568,3539,3478,3423,3402,3392,3429,3449,3414,3479,3501,3488,3419,3376,3398,3436,3387,3365,3318,3286,3345,3376,3415,3492,3569,3583,3610,3553,3470,3397,3341,3304,3343,3285,3233,3236,3248,3199,3200,3248,3250,3231,3209,3167,3169,3139,3113,3085,3043,3011,3069,3216,3261,3375,3397,3349,3391,3338,3287,3274,3280,3277,3238,3218,3184,3184,3225,3184,3167,3142,3111,3059,3027,2992,2971,2965,2950,2913,2931,2938,2922,2899,2884,2850,2896,2958,2946,2935,2928,2941,2901,2883,2842,2800,2765,2733,2719,2719,2686,2704,2688,2649,2614,2590,2559,2626,2612,2559,2544,2525,2490,2477,2483,2529,2547,2559,2546,2521,2511,2544,2519,2480,2465,2451,2448,2439,2480,2511,2522,2546,2541,2559,2643,2692,2708,2731,2766,2781,2773,2802,2846,2901,2942,2934,2887,2862,2831,2788,2743,2714,2691,2660,2620,2624,2608,2595,2591,2635,2615,2605,2595,2579,2623,2658,2755,2827,2832,2886,2867,2822,2784,2783,2822,2832,2809,2823,2798,2798,2759,2768,2811,2801,2778,2768,2749,2717,2690,2655,2629,2603,2581,2581,2551,2522,2505,2543,2526,2494,2471,2513,2507,2544,2646,2717,2730,2689,2665,2631,2597,2587,2626,2682,2715,2704,2753,2738,2793,2818,2774,2736,2694,2655,2612,2589,2619,2608,2559,2526,2512,2520,2494,2493,2501,2476,2491,2481,2480,2480,2518,2499,2540,2507,2480,2507,2530,2501,2467,2448,2481,2481,2458,2457,2505,2559,2610,2635,2608,2559,2559,2544,2554,2596,2609,2559,2559,2557,2521,2494,2501,2513,2489,2477,2436,2418,2448,2478,2480,2473,2496,2538,2640,2734,2899,2963,3189,3275,3221,3161,3120,3104,3105,3152,3204,3178,3152,3199,3203,3387,3513,3502,3604,3697,3665,3683,3755,3742,3839,3843,3843,3851,3855,3859,3856,3857,3843,3843,3851,3863,3847,3851,3846,3856,3856,3856,3855,3854,3847,3843,3844,3853,3859,3861,3851,3851,3857,3853,3858,3846,3845,3856,3857,3851,3853,3856,3841,3854,3855,3856,3847,3783,3824,3822,3787,3749,3854,3856,3851,3856,3856,3854,3861,3840,3847,3856,3856,3847,3840] 
Valores do geste:MaoBaixo
var MaoBaixo1 =[758,751,752,754,749,745,754,769,778,790,797,783,785,815,813,827,816,816,802,802,805,806,801,791,786,779,766,779,799,810,805,823,861,874,871,859,853,859,848,841,830,823,818,807,801,834,865,865,868,855,861,847,832,828,824,829,818,813,811,811,808,816,818,822,831,830,817,811,815,822,815,801,786,788,789,800,800,810,813,807,806,816,806,806,811,811,817,816,810,793,790,784,784,780,774,767,767,756,768,779,771,769,768,758,752,745,741,743,739,728,723,721,718,722,720,706,698,700,696,700,691,690,706,720,727,721,722,730,727,726,742,752,755,749,753,753,747,750,751,752,749,738,725,725,720,710,705,709,694,688,685,683,671,661,654,645,642,641,651,646,636,635,638,637,626,624,647,691,707,707,703,694,688,685,681,689,688,701,731,751,746,741,759,768,763,755,754,743,734,725,730,720,742,784,816,816,812,809,827,851,862,861,848,838,832,830,822,827,827,816,831,825,823,817,810,797,786,781,768,765,762,763,752,744,726,723,716,704,699,697,700,690,702,719,714,715,720,719,714,721,724,720,715,721,721,735,739,766,800,816,835,837,829,821,825,837,834,819,809,797,787,775,767,761,749,757,770,771,775,763,752,741,741,752,755,763,763,771,768,784,784,784,774,782,784,779,779,774,769,769,772,782,789,783,773,775,782,779,778,786,783,772,769,779,772,784,791,791,783,772,763,773,777,782,785,783,777,766,757,750,774,817,849,859,850,855,855,848,834,823,821,817,832,847,848,834,843,865,866,866,858,853,878,896,887,881,875,865,852,855,863,870,880,880,889,894,895,880,879,877,873,873,878,879,869,880,895,893,881,875,864,869,885,902,908,923,928,917,911,901,895,886,898,917,940,928,914,908,895,880,875,900,900,927,929,938,928,927,915,904,896,883,870,856,848,837,825,835,843,832,831,832,826,816,807,803,810,818,821,816,808,797,785,795,795,795,802,809,816,846,851,848,841,831,826,833,806,796,787,774,767,760,752,743,732,720,711,704,704,707,737,745,739,736,726,722,731,730,721,722,722,735,730,743,740,730,726,719,706,703,699,699,706,706,718,716,713,711,708,701,703,711,710,705,703,689,685,679,691,688,682,671,689,725,741,749,750,739,731,738,755,767,769,766,763,752,752,767,761,753,752,752,751,752,757,755,759,752,750,757,752,759,770,780,791,785,777,771,778,783,779,786,775,770,765,756,751,751,752,751,737,724,726,725,722,726,730,743,727,729,725,733,720,719,711,706,709,702,699,688,678,673,674,672,671,674,688,701,690,683,671,666,659,647,643,640,654,654,663,656,655,659,670,674,675,688,699,689,688,675,682,677,670,667,663,656,651,651,642,635,629,626,617,614,636,640,651,657,660,663,686,688,681,689,710,709,711,703,696,694,691,687,688,683,703,722,720,719,715,720,725,720,716,708,706,698,695,703,709,703,698,698,703,699,691,685,683,679,683,688,701,688,681,678,671,658,662,669,673,666,656,651,643,643,651,645,641,647,644,649,663,675,687,726,729,735,730,720,712,707,694,689,680,670,666,659,677,691,680,687,698,698,688,688,698,694,705,699,691,688,691,702,691,688,683,679,697,717,715,704,691,678,671,663,654,647,637,629,627,628,623,622,619,612,605,601,602,599,593,591,585,589,585,579,570,571,578,574,579,590,590,577,578,589,591,579,589,603,613,611,605,608,610,602,592,592,583,577,576,565,578,607,619,614,615,635,637,638,638,629,629,645,645,642,652,659,656,655,651,669,692,686,688,679,678,669,666,671,656,657,658,655,670,697,689,688,682,679,673,673] 
var MaoBaixo2 =[1203,1195,1188,1190,1197,1175,1175,1187,1210,1214,1195,1184,1164,1149,1137,1147,1130,1132,1131,1132,1125,1112,1139,1191,1217,1200,1200,1208,1207,1211,1230,1232,1232,1232,1257,1264,1250,1232,1214,1211,1227,1242,1264,1296,1327,1327,1325,1328,1348,1347,1347,1343,1325,1307,1302,1297,1282,1266,1281,1309,1335,1349,1358,1355,1344,1334,1334,1319,1302,1296,1286,1298,1322,1315,1316,1348,1395,1441,1456,1444,1425,1410,1390,1378,1397,1413,1419,1420,1438,1451,1490,1520,1535,1530,1506,1497,1483,1472,1471,1456,1456,1440,1418,1401,1377,1359,1347,1331,1313,1314,1329,1328,1328,1328,1359,1389,1376,1360,1333,1323,1328,1331,1322,1296,1287,1292,1290,1303,1316,1324,1303,1283,1279,1286,1296,1295,1271,1263,1283,1300,1307,1312,1330,1363,1387,1367,1355,1329,1315,1312,1314,1307,1291,1278,1262,1238,1226,1229,1232,1231,1217,1214,1197,1183,1206,1230,1227,1229,1217,1217,1232,1262,1264,1264,1267,1271,1297,1296,1298,1328,1344,1344,1328,1331,1318,1298,1309,1346,1359,1339,1322,1312,1297,1282,1294,1299,1277,1271,1280,1290,1274,1260,1268,1271,1260,1234,1219,1200,1187,1184,1200,1239,1290,1326,1334,1318,1316,1345,1344,1331,1313,1295,1280,1290,1321,1340,1357,1381,1393,1392,1363,1357,1347,1346,1360,1377,1382,1377,1374,1358,1364,1381,1360,1346,1381,1409,1409,1402,1417,1456,1488,1506,1500,1505,1503,1483,1467,1462,1441,1425,1419,1398,1379,1361,1345,1353,1331,1328,1313,1296,1298,1308,1302,1301,1296,1279,1261,1243,1241,1237,1235,1219,1223,1216,1205,1199,1178,1173,1177,1180,1171,1166,1174,1225,1275,1290,1268,1264,1277,1283,1279,1264,1250,1231,1229,1217,1214,1241,1251,1232,1232,1253,1270,1264,1265,1251,1227,1217,1216,1221,1239,1231,1212,1195,1178,1166,1156,1142,1134,1136,1163,1184,1211,1223,1216,1200,1179,1171,1183,1183,1172,1165,1164,1145,1152,1174,1185,1187,1201,1185,1174,1166,1158,1155,1141,1136,1125,1131,1127,1109,1114,1150,1174,1175,1167,1165,1185,1168,1193,1200,1186,1179,1174,1167,1165,1169,1169,1150,1151,1155,1149,1131,1119,1110,1093,1081,1063,1054,1040,1021,1017,1019,1011,992,984,995,977,987,1019,1050,1077,1090,1088,1111,1143,1163,1157,1137,1125,1127,1117,1109,1104,1097,1078,1067,1043,1040,1023,1012,993,999,1039,1078,1081,1088,1114,1137,1157,1139,1127,1111,1093,1081,1074,1072,1074,1117,1168,1204,1232,1232,1227,1238,1253,1235,1219,1203,1190,1184,1185,1168,1153,1137,1123,1104,1097,1086,1093,1100,1084,1063,1058,1058,1071,1072,1066,1072,1072,1072,1054,1040,1050,1070,1077,1067,1047,1037,1033,1063,1104,1123,1130,1119,1110,1108,1093,1072,1060,1046,1037,1019,1007,997,979,974,972,972,965,959,961,957,947,931,923,918,906,896,890,894,890,882,874,896,936,978,1005,1008,1009,1019,1058,1072,1061,1069,1059,1068,1088,1104,1097,1101,1120,1123,1103,1087,1072,1072,1091,1100,1113,1111,1110,1115,1131,1178,1209,1220,1206,1200,1189,1179,1170,1182,1167,1168,1177,1180,1193,1200,1205,1200,1194,1188,1169,1154,1143,1143,1137,1126,1104,1103,1105,1118,1107,1091,1079,1077,1072,1091,1104,1089,1072,1059,1040,1020,1006,1033,1079,1125,1152,1150,1168,1202,1216,1232,1230,1213,1217,1232,1230,1227,1246,1246,1252,1280,1296,1275,1253,1237,1231,1211,1212,1227,1223,1210,1194,1170,1158,1143,1134,1119,1102,1095,1079,1072,1089,1100,1083,1072,1072,1073,1057,1054,1058,1093,1141,1159,1150,1151,1148,1153,1147,1138,1136,1137,1136,1146,1150,1143,1137,1134,1114,1106,1095,1086,1072,1048,1035,1018,1009,1003,1001,1007,1008,1008,991,993,977,961,953,944,931,914,901,896,916,959,971,961,963,959,944,945,960,966,960,944,912,909,894,898,934,969,967,961,971,978,959,954,946,944,941,945,945,944,955,942,925,923,922,922,911,912,910,941,1003,1063,1101,1123,1113,1097,1079,1070,1056,1046,1044,1037,1011,1002,982,974,966,973,955,955,958,962,978,993,998,999,1004,992,976,978,980,988,997,1007,1019,1007,998,979,967,968,977,989,1005,998,980,967,950,939,925,910,899,922,889,880,876,880,881,873,857,843,833,816,816,803,791,785,784,778,766,766,765,768,779,842,897,935,927,913,903,898,897,921,947,942,951,976] 
Valores do geste:Pinça
var Pinça1 =[448,446,447,443,447,464,475,477,477,482,479,474,466,465,462,454,458,463,458,448,454,459,449,446,435,432,429,430,427,420,416,407,405,400,394,389,384,387,399,393,400,407,406,413,417,412,417,430,432,431,435,442,433,427,426,430,438,445,450,457,464,463,458,459,455,454,455,448,443,437,432,431,432,437,437,435,452,469,480,482,507,539,533,528,523,511,503,496,491,487,497,509,525,525,533,542,556,576,589,592,581,569,576,582,576,576,581,579,597,602,599,597,593,589,589,592,586,585,579,576,573,573,574,573,579,594,605,606,594,594,591,596,622,635,635,639,634,630,627,640,642,636,635,634,627,619,611,609,618,624,623,622,614,609,599,589,586,581,577,576,576,575,570,573,573,567,561,558,551,547,544,538,544,545,548,547,542,537,530,527,521,511,507,501,496,495,483,478,471,465,466,479,470,469,469,479,469,468,467,463,460,461,462,484,505,506,526,529,524,511,505,511,535,550,551,550,551,539,538,533,528,511,511,528,511,504,499,511,528,528,511,510,503,503,507,498,494,484,478,474,477,477,478,477,471,477,471,465,463,464,464,461,461,454,445,437,433,432,432,428,425,423,420,418,415,418,432,445,447,447,436,432,428,430,434,443,444,447,442,439,448,460,457,460,464,490,503,502,499,503,496,502,511,509,511,509,506,499,511,523,511,509,511,525,525,531,555,567,566,563,559,547,543,545,544,538,535,528,524,511,511,511,502,496,493,496,499,496,498,511,511,507,510,511,511,511,526,511,511,500,496,491,486,481,477,474,471,486,493,497,498,501,493,494,486,478,473,467,460,461,468,483,494,490,481,487,498,511,511,542,562,564,560,560,555,554,547,544,534,529,530,540,530,528,526,507,498,505,507,510,511,523,533,537,531,528,523,511,507,500,494,493,489,480,475,480,476,480,497,511,511,511,526,511,511,511,505,498,496,489,499,525,538,551,581,588,578,575,576,573,576,571,563,554,559,573,574,562,559,558,553,562,577,574,563,555,551,545,535,528,523,511,511,503,498,493,487,477,470,463,455,462,471,466,461,453,452,463,477,465,464,462,458,448,440,442,439,436,432,432,432,436,448,458,453,453,456,463,471,468,464,471,470,469,480,485,481,476,465,464,462,453,464,480,489,486,487,490,478,469,463,465,474,490,496,496,496,494,486,497,509,496,496,496,493,495,495,490,495,499,496,505,511,501,499,496,497,496,496,499,493,489,483,474,475,483,473,464,462,461,455,450,448,446,447,451,444,436,432,426,423,441,473,503,528,529,529,539,573,610,625,624,616,606,597,592,592,595,592,592,591,581,582,591,594,595,597,592,595,595,624,647,637,634,626,621,607,597,589,581,575,579,592,592,592,582,576,576,563,562,569,588,599,605,607,602,592,586,578,579,576,573,570,560,560,563,560,554,544,533,526,526,528,539,560,562,559,547,541,536,528,524,511,503,503,502,498,495,487,481,473,476,480,479,473,467,464,453,449,447,439,432,429,421,422,421,431,429,424,423,428,427,423,417,412,400,399,397,397,401,402,400,399,415,431,426,432,446,448,465,477,473,478,482,477,473,464,466,466,464,464,459,461,457,454,458,464,473,468,466,470,479,474,472,464,466,474,469,482,493,483,487,496,496,489,483,475,467,462,455,448,441,441,444,448,452,448,444,434,432,426,432,437,433,439,443,448,447,451,463,476,491,485,478,482,487,486,495,489,481,475,467,464,460,455,455,448,442,435,432,429,422,411,405,400,398,394,389,389,384,384,378,368,368,372,384,385,383,374,378,390,395,389,396,400,400,392,394,385,390] 
var Pinça2 =[1157,1158,1140,1156,1182,1200,1200,1184,1187,1201,1203,1183,1169,1171,1163,1141,1137,1130,1136,1149,1150,1151,1136,1117,1115,1121,1117,1110,1110,1103,1093,1100,1135,1156,1138,1131,1139,1170,1167,1165,1158,1154,1152,1168,1154,1139,1126,1120,1102,1087,1073,1086,1088,1081,1082,1090,1083,1093,1104,1095,1073,1065,1069,1053,1043,1040,1022,1008,1019,1036,1023,1011,1019,1038,1046,1040,1021,1008,999,1003,1013,1003,991,989,975,960,953,942,951,970,961,962,981,976,963,963,989,1007,1020,1014,1007,997,976,960,954,959,955,979,1004,993,986,976,987,989,971,960,950,945,940,944,930,912,899,887,895,882,875,864,894,938,944,939,944,951,952,957,945,945,961,987,1011,1050,1055,1040,1040,1043,1055,1072,1072,1085,1095,1087,1104,1099,1104,1133,1158,1211,1239,1235,1214,1199,1191,1182,1161,1143,1147,1187,1156,1165,1167,1152,1146,1153,1146,1134,1146,1179,1200,1186,1166,1154,1168,1190,1187,1168,1155,1145,1131,1117,1102,1087,1074,1072,1076,1063,1061,1093,1168,1261,1335,1356,1362,1437,1535,1641,1682,1690,1699,1705,1705,1690,1662,1637,1614,1599,1600,1603,1585,1575,1535,1535,1561,1535,1511,1501,1506,1495,1483,1459,1448,1453,1427,1413,1413,1399,1386,1367,1349,1335,1329,1328,1333,1313,1315,1302,1302,1328,1378,1442,1466,1455,1431,1410,1408,1392,1372,1358,1335,1321,1301,1279,1265,1243,1227,1213,1214,1214,1200,1181,1168,1152,1137,1143,1151,1136,1131,1138,1148,1142,1136,1137,1140,1161,1151,1145,1162,1172,1209,1232,1232,1214,1212,1217,1200,1194,1211,1205,1188,1177,1168,1158,1136,1129,1136,1147,1165,1152,1141,1146,1152,1152,1143,1149,1166,1156,1137,1123,1117,1125,1115,1109,1097,1088,1078,1080,1067,1057,1067,1079,1083,1073,1088,1111,1118,1117,1105,1089,1082,1088,1096,1085,1072,1065,1078,1118,1150,1166,1152,1137,1119,1103,1098,1088,1074,1076,1094,1116,1102,1103,1121,1123,1106,1092,1104,1104,1109,1126,1131,1122,1119,1115,1105,1089,1085,1069,1069,1086,1106,1110,1107,1097,1079,1070,1072,1069,1053,1040,1045,1043,1037,1039,1033,1023,1023,1043,1038,1020,1020,1002,990,982,967,967,962,957,943,931,937,942,945,934,928,924,918,908,901,889,907,944,960,957,944,933,949,939,928,913,912,914,923,949,960,963,965,957,942,941,959,961,945,932,916,913,903,889,879,863,850,848,858,869,853,850,848,835,832,822,816,816,829,818,805,786,784,777,766,769,784,772,771,767,778,814,847,848,837,833,833,830,821,819,830,838,839,825,815,802,788,774,767,752,747,751,747,738,734,721,719,719,703,700,687,672,670,678,666,663,669,663,655,673,727,784,805,816,816,803,786,791,819,832,828,815,830,880,912,921,910,899,880,869,892,894,887,896,919,944,941,925,912,901,908,906,887,887,878,880,902,939,966,976,963,953,943,928,923,914,900,885,878,884,896,898,885,877,857,858,875,880,899,923,923,914,912,911,905,913,913,903,902,907,933,966,999,1007,995,1007,1040,1077,1103,1131,1119,1111,1129,1120,1109,1115,1129,1117,1104,1100,1093,1082,1085,1086,1086,1072,1058,1040,1019,1008,1005,999,986,1010,1023,1021,1010,1010,1022,1051,1068,1061,1082,1105,1102,1106,1105,1095,1088,1097,1105,1101,1083,1090,1110,1114,1104,1088,1072,1069,1053,1044,1031,1021,1006,994,981,976,960,953,959,945,944,949,946,934,918,909,893,891,897,885,882,894,930,987,1020,1015,1008,1021,1035,1041,1054,1069,1068,1056,1040,1019,1038,1060,1077,1093,1091,1104,1103,1122,1175,1201,1217,1207,1186,1181,1199,1227,1229,1222,1216,1206,1201,1187,1187,1179,1163,1148,1129,1123,1106,1097,1107,1120,1104,1093,1078,1072,1065,1059,1062,1075,1072,1056,1043,1023,1019,1019,1021,1040,1056,1049,1040,1040,1043,1065,1055,1053,1078,1104,1093,1088,1074,1072,1072,1060,1039,1023,1019,1045,1043,1040,1031,1042,1059,1045,1040,1017,1008,994,976,963,947,943,930,913,908,905,896,887,880,874,869,871,863,854,863,864,850,848,848,838,846,855,853,845,834,823,826,813,813,815,831,835,860,898,943,941,924,911,906,893] 
